<svg xmlns="http://www.w3.org/2000/svg" width="61.183" height="54.112" viewBox="0 0 61.183 54.112">
  <g id="noun_Mission_1248527_1_" data-name="noun_Mission_1248527 (1)" transform="translate(0 -11.557)">
    <g id="Group_4256" data-name="Group 4256" transform="translate(0 11.557)">
      <path id="Path_142" data-name="Path 142" d="M32.564,76.228A12.326,12.326,0,1,1,51.841,62.32L50,63.007A10.36,10.36,0,1,0,33.8,74.7Z" transform="translate(-19.409 -41.224)" fill="#783c90"/>
      <g id="Group_4253" data-name="Group 4253" transform="translate(2.418 18.133)">
        <path id="Path_143" data-name="Path 143" d="M90.04,106.3,72.582,74.881,59.866,97.772l-1.719-.956L72.582,70.832,91.76,105.35Z" transform="translate(-42.777 -70.832)" fill="#783c90"/>
        <path id="Path_144" data-name="Path 144" d="M9.624,124.5,7.9,123.546l14.72-26.5L28.8,108.163l-1.719.955L22.625,101.1Z" transform="translate(-7.905 -89.029)" fill="#783c90"/>
        <path id="Path_145" data-name="Path 145" d="M155.051,139.585l-9.309-16.755-2.822,5.08-1.719-.955,4.541-8.175,11.029,19.85Z" transform="translate(-100.424 -104.112)" fill="#783c90"/>
        <path id="Path_146" data-name="Path 146" d="M92.162,117.534l-3.278-3.278-3.278,3.278-3.973-3.973,1.39-1.39,2.583,2.582,3.278-3.277,3.278,3.277,2.583-2.582,1.39,1.39Z" transform="translate(-59.079 -99.042)" fill="#783c90"/>
      </g>
      <rect id="Rectangle_392" data-name="Rectangle 392" width="61.183" height="1.967" transform="translate(0 52.146)" fill="#783c90"/>
      <g id="Group_4254" data-name="Group 4254" transform="translate(31.24 0)">
        <path id="Path_147" data-name="Path 147" d="M117.625,23.009h-15.5V11.557h15.5l-2.11,5.726Zm-13.538-1.967H114.8l-1.385-3.759,1.385-3.76H104.087Z" transform="translate(-102.12 -11.557)" fill="#783c90"/>
        <rect id="Rectangle_393" data-name="Rectangle 393" width="1.967" height="19.174" transform="translate(0 0.983)" fill="#783c90"/>
      </g>
      <rect id="Rectangle_394" data-name="Rectangle 394" width="5.736" height="1.966" transform="translate(38.865 20.088)" fill="#783c90"/>
      <g id="Group_4255" data-name="Group 4255" transform="translate(41.733 13.805)">
        <rect id="Rectangle_395" data-name="Rectangle 395" width="8.122" height="1.967" fill="#783c90"/>
        <rect id="Rectangle_396" data-name="Rectangle 396" width="3.205" height="1.967" transform="translate(10.416)" fill="#783c90"/>
      </g>
    </g>
  </g>
</svg>
