<svg xmlns="http://www.w3.org/2000/svg" width="60.41" height="60.537" viewBox="0 0 60.41 60.537">
  <g id="noun_Value_3216203" transform="translate(-3.249 -3.183)">
    <g id="Group_4257" data-name="Group 4257" transform="translate(3.249 3.182)">
      <path id="Path_148" data-name="Path 148" d="M63.33,47.437A3.436,3.436,0,0,0,58.8,45.756L45.332,49.973a3.423,3.423,0,0,0,.18-.858,3.553,3.553,0,0,0-3.605-3.66h-8.7c-6.319-2.106-8.726-3.783-13.331-3.783H15.124V39.358a2.616,2.616,0,0,0-2.613-2.613H5.862a2.616,2.616,0,0,0-2.613,2.613v21.77a2.616,2.616,0,0,0,2.613,2.613h6.649a2.616,2.616,0,0,0,2.613-2.613V59.069h2.652c1.518,0,.979.139,17.784,6.028a4.538,4.538,0,0,0,3.751-.338l22.36-12.74A3.446,3.446,0,0,0,63.33,47.437ZM12.511,62.314H5.862a1.187,1.187,0,0,1-1.186-1.186V39.358a1.187,1.187,0,0,1,1.186-1.186h6.649A1.187,1.187,0,0,1,13.7,39.358v21.77A1.187,1.187,0,0,1,12.511,62.314Zm48.5-11.561L38.6,63.519a3.111,3.111,0,0,1-2.569.232c-17.007-5.934-16.4-6.11-18.259-6.11H15.124V43.1h4.755c4.236,0,6.282,1.5,12.96,3.74a.721.721,0,0,0,.245.043h8.822a2.129,2.129,0,0,1,2.181,2.143,2.024,2.024,0,0,1-2.018,1.891H32.593a4.518,4.518,0,0,0-4.513,4.513v.61a.713.713,0,0,0,1.427,0v-.61a3.089,3.089,0,0,1,3.086-3.086H42.07c.886,0,17.2-5.228,17.292-5.273a2.019,2.019,0,1,1,1.652,3.683Z" transform="translate(-3.249 -4.816)" fill="#783c90"/>
      <path id="Path_149" data-name="Path 149" d="M19.525,12.629c-.06.124-.926,2.285-3.063,7.554a.711.711,0,0,0,.073.64c.081.1,17.115,20.162,17.028,20.067a.692.692,0,0,0,1.052,0c.129-.142,16.913-19.907,16.991-20a.731.731,0,0,0,.114-.727c-.275-.684-3.3-7.634-3.251-7.535a.764.764,0,0,0-.64-.4H20.167A.758.758,0,0,0,19.525,12.629ZM34.089,38.5,27.136,21.137H41.047Zm6.2-18.785h-12.4l6.161-5.794ZM20.367,14.344l4.241,5.367H18.187ZM25.6,21.137l6.2,15.471L18.668,21.137ZM36.382,36.611l6.2-15.473h6.936Zm7.165-16.9,4.11-5.371,2.32,5.371Zm2.838-6.057-4.373,5.714-6.156-5.714H46.385Zm-14.146,0-6.08,5.718L21.64,13.653h10.6Z" transform="translate(-3.89 -3.623)" fill="#783c90"/>
      <path id="Path_150" data-name="Path 150" d="M28.955,9.941a.713.713,0,0,0,.125-1L27.071,6.359a.714.714,0,1,0-1.126.877l2.009,2.58A.713.713,0,0,0,28.955,9.941Z" transform="translate(-4.347 -3.324)" fill="#783c90"/>
      <path id="Path_151" data-name="Path 151" d="M35.676,7.166V3.9a.713.713,0,1,0-1.427,0v3.27a.713.713,0,1,0,1.427,0Z" transform="translate(-4.758 -3.182)" fill="#783c90"/>
      <path id="Path_152" data-name="Path 152" d="M41.869,9.816l2.009-2.581a.713.713,0,1,0-1.126-.876L40.743,8.94a.713.713,0,0,0,1.126.876Z" transform="translate(-5.067 -3.324)" fill="#783c90"/>
    </g>
  </g>
</svg>
